%YAML 1.1
%TAG !u! tag:unity3d.com,2011:
--- !u!1045 &1
EditorBuildSettings:
  m_ObjectHideFlags: 0
  serializedVersion: 2
  m_Scenes:
  - enabled: 1
    path: Assets/Scenes/Menu.unity
    guid: 262a0021afe5f0942b39b8b7ed8bf111
  - enabled: 1
    path: Assets/Scenes/Sound.unity
    guid: eff02ebf42ed7b746a6db5e0c1c764b9
  - enabled: 1
    path: Assets/Scenes/PRUEBA.unity
    guid: f58809e186d5b2846b91e57786951a9e
  - enabled: 1
    path: Assets/Scenes/WIN.unity
    guid: 0d0bbdd4936719d4487745ff1d54ecd5
  m_configObjects: {}
