%YAML 1.1
%TAG !u! tag:unity3d.com,2011:
--- !u!1001 &1096627172551123854
PrefabInstance:
  m_ObjectHideFlags: 0
  serializedVersion: 2
  m_Modification:
    m_TransformParent: {fileID: 0}
    m_Modifications:
    - target: {fileID: -8679921383154817045, guid: 90cd3f37f7b1ef54b8464a648fca06eb, type: 3}
      propertyPath: m_LocalPosition.x
      value: 1.3035178
      objectReference: {fileID: 0}
    - target: {fileID: -8679921383154817045, guid: 90cd3f37f7b1ef54b8464a648fca06eb, type: 3}
      propertyPath: m_LocalPosition.y
      value: 0.495
      objectReference: {fileID: 0}
    - target: {fileID: -8679921383154817045, guid: 90cd3f37f7b1ef54b8464a648fca06eb, type: 3}
      propertyPath: m_LocalPosition.z
      value: -1.6729597
      objectReference: {fileID: 0}
    - target: {fileID: -8679921383154817045, guid: 90cd3f37f7b1ef54b8464a648fca06eb, type: 3}
      propertyPath: m_LocalRotation.x
      value: 0
      objectReference: {fileID: 0}
    - target: {fileID: -8679921383154817045, guid: 90cd3f37f7b1ef54b8464a648fca06eb, type: 3}
      propertyPath: m_LocalRotation.y
      value: 0
      objectReference: {fileID: 0}
    - target: {fileID: -8679921383154817045, guid: 90cd3f37f7b1ef54b8464a648fca06eb, type: 3}
      propertyPath: m_LocalRotation.z
      value: 0
      objectReference: {fileID: 0}
    - target: {fileID: -8679921383154817045, guid: 90cd3f37f7b1ef54b8464a648fca06eb, type: 3}
      propertyPath: m_LocalRotation.w
      value: 1
      objectReference: {fileID: 0}
    - target: {fileID: -8679921383154817045, guid: 90cd3f37f7b1ef54b8464a648fca06eb, type: 3}
      propertyPath: m_RootOrder
      value: 0
      objectReference: {fileID: 0}
    - target: {fileID: -8679921383154817045, guid: 90cd3f37f7b1ef54b8464a648fca06eb, type: 3}
      propertyPath: m_LocalEulerAnglesHint.x
      value: 0
      objectReference: {fileID: 0}
    - target: {fileID: -8679921383154817045, guid: 90cd3f37f7b1ef54b8464a648fca06eb, type: 3}
      propertyPath: m_LocalEulerAnglesHint.y
      value: 0
      objectReference: {fileID: 0}
    - target: {fileID: -8679921383154817045, guid: 90cd3f37f7b1ef54b8464a648fca06eb, type: 3}
      propertyPath: m_LocalEulerAnglesHint.z
      value: 0
      objectReference: {fileID: 0}
    - target: {fileID: 919132149155446097, guid: 90cd3f37f7b1ef54b8464a648fca06eb, type: 3}
      propertyPath: m_Name
      value: shitescudo
      objectReference: {fileID: 0}
    - target: {fileID: 8006958694806783865, guid: 90cd3f37f7b1ef54b8464a648fca06eb, type: 3}
      propertyPath: m_Materials.Array.data[0]
      value: 
      objectReference: {fileID: 2100000, guid: c35dffbe8d3c56548ab47c2cd6097161, type: 2}
    m_RemovedComponents: []
  m_SourcePrefab: {fileID: 100100000, guid: 90cd3f37f7b1ef54b8464a648fca06eb, type: 3}
